[{
    "backlink":"http://service.sponsorpay.com/installs/v2?appid=[c6]&answer_received=0&subid=[uniqid]",
    "key":"3ea6650a-5653-4ba8-b09e-5a2a4767fb7e",
    "c1":"false",
    "c10":"false",
    "c2":"false",
    "c3":"false",
    "c4":"false",
    "c5":"sp",
    "c6":"appid",
    "c7":"false",
    "c8":"false",
    "c9":"false",
    "campaign_id":"524f34f4-daf8-4f73-97d1-b0eda6849cca",
    "creative":"",
    "name":"Dragon City New < Sponsorpay",
    "network_id":"0f3748b6-d810-4e6b-b950-23e3eebd0c4e",
    "status":1,"unique_id":"{click_id}",
    "user_id":"1a5c8ac8-6574-4be9-b217-84bc3173a372"
},{
    "backlink":"http://postback.aarki.net/pbn/install?app_id=[c6]&clk=[uniqid]",
    "key":"7bb6a2d4-7499-40df-a531-3d0fc26ee30d",
    "c1":"{advertising_id}",
    "c10":"false",
    "c2":"{mac_uc_sep_md5}",
    "c3":"{mac_uc_sep_sha1}",
    "c4":"{odin1}",
    "c5":"ark",
    "c6":"{app_id}",
    "c7":"{device_id}",
    "c8":"{phone_id}",
    "c9":"false",
    "campaign_id":"524f34f4-daf8-4f73-97d1-b0eda6849cca",
    "creative":"",
    "name":"Dragon City New < Aarki",
    "network_id":"a030203c-bdea-4392-8110-e8560a847fc8",
    "status":1,"unique_id":"{click_id}",
    "user_id":"1a5c8ac8-6574-4be9-b217-84bc3173a372"
},{
    "backlink":"http://tracking.mobymotion.com/aff_lsr?offer_id=[c6]&transaction_id=[uniqid]",
    "key":"8315a80b-d6cc-4d0c-8324-22d801b3bdd5",
    "c1":"false",
    "c10":"false",
    "c2":"false",
    "c3":"false",
    "c4":"false",
    "c5":"mbt",
    "c6":"offer_id",
    "c7":"false",
    "c8":"false",
    "c9":"false",
    "campaign_id":"524f34f4-daf8-4f73-97d1-b0eda6849cca",
    "creative":"",
    "name":"Dragon City New < Mbt New",
    "network_id":"be6fc1da-60d4-412c-b8cc-c7547701b275",
    "status":1,"unique_id":"{transaction_id}",
    "user_id":"1a5c8ac8-6574-4be9-b217-84bc3173a372"
},{
    "backlink":"https://ads.appia.com/v2/installAd.jsp?referrer=[uniqid]",
    "key":"f92af56f-68b3-482b-b404-26924aab142e",
    "c1":"false",
    "c10":"false",
    "c2":"false",
    "c3":"false",
    "c4":"false",
    "c5":"appia",
    "c6":"false",
    "c7":"false",
    "c8":"false",
    "c9":"false",
    "campaign_id":"524f34f4-daf8-4f73-97d1-b0eda6849cca",
    "creative":"",
    "name":"Dragon City New < Appia",
    "network_id":"f65ef053-31c7-4f52-9f22-1b8f7040c0d2",
    "status":1,"unique_id":"[ClickID]",
    "user_id":"1a5c8ac8-6574-4be9-b217-84bc3173a372"
}]